{"failedCount":1,"prefixedPath":"testSuite\/beforeTest.feature","packageQualifiedName":"testSuite.beforeTest","loopIndex":-1,"relativePath":"testSuite\/beforeTest.feature","scenarioResults":[{"sectionIndex":0,"stepResults":[{"result":{"nanos":128395300,"millis":128.3953,"status":"passed"},"step":{"line":3,"prefix":"*","index":0,"text":"url 'https:\/\/reqres.in\/api\/users?page=2'"}},{"result":{"nanos":811820100,"millis":811.8201,"status":"passed"},"step":{"line":4,"prefix":"*","index":1,"text":"method GET"},"stepLog":"19:39:14.980 request:\n1 > GET https:\/\/reqres.in\/api\/users?page=2\n1 > Host: reqres.in\n1 > Connection: Keep-Alive\n1 > User-Agent: Apache-HttpClient\/4.5.14 (Java\/17.0.6)\n1 > Accept-Encoding: gzip,deflate\n\n\n19:39:15.327 response time in milliseconds: 347\n1 < 200\n1 < Date: Mon, 03 Apr 2023 14:09:51 GMT\n1 < Content-Type: application\/json; charset=utf-8\n1 < Transfer-Encoding: chunked\n1 < Connection: keep-alive\n1 < X-Powered-By: Express\n1 < Access-Control-Allow-Origin: *\n1 < Etag: W\/\"406-ut0vzoCuidvyMf8arZpMpJ6ZRDw\"\n1 < Via: 1.1 vegur\n1 < Cache-Control: max-age=14400\n1 < CF-Cache-Status: HIT\n1 < Age: 1578\n1 < Report-To: {\"endpoints\":[{\"url\":\"https:\\\/\\\/a.nel.cloudflare.com\\\/report\\\/v3?s=vVpYFxa2T30gHbbAoMgpyBl1TRWPeIQ77inb25LkNpc7BHAMzO5ZLHttUgd9vPdkPN8HhCHaKkb9%2FsXNLVbShgaM7sROhXghPt1PZgmLT4DIvTTMu7RUxpbb3g%3D%3D\"}],\"group\":\"cf-nel\",\"max_age\":604800}\n1 < NEL: {\"success_fraction\":0,\"report_to\":\"cf-nel\",\"max_age\":604800}\n1 < Vary: Accept-Encoding\n1 < Server: cloudflare\n1 < CF-RAY: 7b21e449d98a3c13-BLR\n{\"page\":2,\"per_page\":6,\"total\":12,\"total_pages\":2,\"data\":[{\"id\":7,\"email\":\"michael.lawson@reqres.in\",\"first_name\":\"Michael\",\"last_name\":\"Lawson\",\"avatar\":\"https:\/\/reqres.in\/img\/faces\/7-image.jpg\"},{\"id\":8,\"email\":\"lindsay.ferguson@reqres.in\",\"first_name\":\"Lindsay\",\"last_name\":\"Ferguson\",\"avatar\":\"https:\/\/reqres.in\/img\/faces\/8-image.jpg\"},{\"id\":9,\"email\":\"tobias.funke@reqres.in\",\"first_name\":\"Tobias\",\"last_name\":\"Funke\",\"avatar\":\"https:\/\/reqres.in\/img\/faces\/9-image.jpg\"},{\"id\":10,\"email\":\"byron.fields@reqres.in\",\"first_name\":\"Byron\",\"last_name\":\"Fields\",\"avatar\":\"https:\/\/reqres.in\/img\/faces\/10-image.jpg\"},{\"id\":11,\"email\":\"george.edwards@reqres.in\",\"first_name\":\"George\",\"last_name\":\"Edwards\",\"avatar\":\"https:\/\/reqres.in\/img\/faces\/11-image.jpg\"},{\"id\":12,\"email\":\"rachel.howell@reqres.in\",\"first_name\":\"Rachel\",\"last_name\":\"Howell\",\"avatar\":\"https:\/\/reqres.in\/img\/faces\/12-image.jpg\"}],\"support\":{\"url\":\"https:\/\/reqres.in\/#support-heading\",\"text\":\"To keep ReqRes free, contributions towards server costs are appreciated!\"}}\n\n"},{"result":{"nanos":73465400,"millis":73.4654,"status":"passed"},"step":{"line":5,"prefix":"*","index":2,"text":"def dataids = $.data[*].id"}},{"result":{"nanos":130201800,"millis":130.2018,"status":"passed"},"step":{"line":6,"prefix":"*","index":3,"text":"print dataids"},"stepLog":"19:39:15.597 [print] [\n  7,\n  8,\n  9,\n  10,\n  11,\n  12\n]\n \n"},{"result":{"nanos":9208400,"millis":9.2084,"status":"passed"},"step":{"line":7,"prefix":"*","index":4,"text":"def createdids = karate.mapWithKey(dataids,'id')"}},{"result":{"nanos":2005100,"millis":2.0051,"status":"passed"},"step":{"line":8,"prefix":"*","index":5,"text":"print createdids"},"stepLog":"19:39:15.610 [print] [\n  {\n    \"id\": 7\n  },\n  {\n    \"id\": 8\n  },\n  {\n    \"id\": 9\n  },\n  {\n    \"id\": 10\n  },\n  {\n    \"id\": 11\n  },\n  {\n    \"id\": 12\n  }\n]\n \n"},{"result":{"nanos":116221900,"errorMessage":"feature call loop failed at index: 0, http call failed after 1 milliseconds for url: 7\norg.apache.http.ProtocolException: Target host is not specified\ntestSuite\/deleteid.feature:4\nfeature call loop failed at index: 1, http call failed after 0 milliseconds for url: 8\norg.apache.http.ProtocolException: Target host is not specified\ntestSuite\/deleteid.feature:4\nfeature call loop failed at index: 2, http call failed after 0 milliseconds for url: 9\norg.apache.http.ProtocolException: Target host is not specified\ntestSuite\/deleteid.feature:4\nfeature call loop failed at index: 3, http call failed after 0 milliseconds for url: 10\norg.apache.http.ProtocolException: Target host is not specified\ntestSuite\/deleteid.feature:4\nfeature call loop failed at index: 4, http call failed after 0 milliseconds for url: 11\norg.apache.http.ProtocolException: Target host is not specified\ntestSuite\/deleteid.feature:4\nfeature call loop failed at index: 5, http call failed after 3 milliseconds for url: 12\norg.apache.http.ProtocolException: Target host is not specified\ntestSuite\/deleteid.feature:4\ntestSuite\/beforeTest.feature:9","millis":116.2219,"status":"failed"},"step":{"line":9,"prefix":"*","index":6,"text":"def delid = call read('deleteid.feature') createdids"},"stepLog":"19:39:15.725 testSuite\/beforeTest.feature:9\n* def delid = call read('deleteid.feature') createdids\nfeature call loop failed at index: 5, http call failed after 3 milliseconds for url: 12\norg.apache.http.ProtocolException: Target host is not specified\ntestSuite\/deleteid.feature:4\n19:39:15.725 testSuite\/beforeTest.feature:9\n* def delid = call read('deleteid.feature') createdids\nfeature call loop failed at index: 0, http call failed after 1 milliseconds for url: 7\norg.apache.http.ProtocolException: Target host is not specified\ntestSuite\/deleteid.feature:4\nfeature call loop failed at index: 1, http call failed after 0 milliseconds for url: 8\norg.apache.http.ProtocolException: Target host is not specified\ntestSuite\/deleteid.feature:4\nfeature call loop failed at index: 2, http call failed after 0 milliseconds for url: 9\norg.apache.http.ProtocolException: Target host is not specified\ntestSuite\/deleteid.feature:4\nfeature call loop failed at index: 3, http call failed after 0 milliseconds for url: 10\norg.apache.http.ProtocolException: Target host is not specified\ntestSuite\/deleteid.feature:4\nfeature call loop failed at index: 4, http call failed after 0 milliseconds for url: 11\norg.apache.http.ProtocolException: Target host is not specified\ntestSuite\/deleteid.feature:4\nfeature call loop failed at index: 5, http call failed after 3 milliseconds for url: 12\norg.apache.http.ProtocolException: Target host is not specified\ntestSuite\/deleteid.feature:4\ntestSuite\/beforeTest.feature:9\n","callResults":[{"prefixedPath":"testSuite\/deleteid.feature","loopIndex":0,"callDepth":1,"description":"","resultDate":"2023-04-03 07:39:15 pm","durationMillis":13.3829,"callArg":{"id":7},"failedCount":1,"packageQualifiedName":"testSuite.deleteid","relativePath":"testSuite\/deleteid.feature","scenarioResults":[{"sectionIndex":0,"stepResults":[{"result":{"nanos":5596400,"millis":5.5964,"status":"passed"},"step":{"line":3,"prefix":"*","index":0,"text":"url 'https:\/\/reqres.in\/api\/users\/',id"}},{"result":{"nanos":7786500,"errorMessage":"http call failed after 1 milliseconds for url: 7\norg.apache.http.ProtocolException: Target host is not specified\ntestSuite\/deleteid.feature:4","millis":7.7865,"status":"failed"},"step":{"line":4,"prefix":"*","index":1,"text":"method DELETE"},"stepLog":"19:39:15.650 org.apache.http.ProtocolException: Target host is not specified, http call failed after 1 milliseconds for url: 7\n19:39:15.659 testSuite\/deleteid.feature:4\n* method DELETE\nhttp call failed after 1 milliseconds for url: 7\norg.apache.http.ProtocolException: Target host is not specified\ntestSuite\/deleteid.feature:4\n"},{"result":{"nanos":0,"millis":0.0,"status":"skipped"},"step":{"line":5,"prefix":"*","index":2,"text":"status 204"}}],"line":2,"description":"","durationMillis":13.3829,"failed":true,"error":"http call failed after 1 milliseconds for url: 7\norg.apache.http.ProtocolException: Target host is not specified\ntestSuite\/deleteid.feature:4","executorName":"main","name":"Delete id","startTime":1680530955637,"refId":"[1:2]","endTime":1680530955659,"exampleIndex":-1}],"name":"Delete single ID","passedCount":0},{"prefixedPath":"testSuite\/deleteid.feature","loopIndex":1,"callDepth":1,"description":"","resultDate":"2023-04-03 07:39:15 pm","durationMillis":2.836,"callArg":{"id":8},"failedCount":1,"packageQualifiedName":"testSuite.deleteid","relativePath":"testSuite\/deleteid.feature","scenarioResults":[{"sectionIndex":0,"stepResults":[{"result":{"nanos":698400,"millis":0.6984,"status":"passed"},"step":{"line":3,"prefix":"*","index":0,"text":"url 'https:\/\/reqres.in\/api\/users\/',id"},"stepLog":"19:39:15.667 testSuite\/beforeTest.feature:9\n* def delid = call read('deleteid.feature') createdids\nfeature call loop failed at index: 0, http call failed after 1 milliseconds for url: 7\norg.apache.http.ProtocolException: Target host is not specified\ntestSuite\/deleteid.feature:4\n"},{"result":{"nanos":2137600,"errorMessage":"http call failed after 0 milliseconds for url: 8\norg.apache.http.ProtocolException: Target host is not specified\ntestSuite\/deleteid.feature:4","millis":2.1376,"status":"failed"},"step":{"line":4,"prefix":"*","index":1,"text":"method DELETE"},"stepLog":"19:39:15.677 org.apache.http.ProtocolException: Target host is not specified, http call failed after 0 milliseconds for url: 8\n19:39:15.677 testSuite\/deleteid.feature:4\n* method DELETE\nhttp call failed after 0 milliseconds for url: 8\norg.apache.http.ProtocolException: Target host is not specified\ntestSuite\/deleteid.feature:4\n"},{"result":{"nanos":0,"millis":0.0,"status":"skipped"},"step":{"line":5,"prefix":"*","index":2,"text":"status 204"}}],"line":2,"description":"","durationMillis":2.836,"failed":true,"error":"http call failed after 0 milliseconds for url: 8\norg.apache.http.ProtocolException: Target host is not specified\ntestSuite\/deleteid.feature:4","executorName":"main","name":"Delete id","startTime":1680530955675,"refId":"[1:2]","endTime":1680530955677,"exampleIndex":-1}],"name":"Delete single ID","passedCount":0},{"prefixedPath":"testSuite\/deleteid.feature","loopIndex":2,"callDepth":1,"description":"","resultDate":"2023-04-03 07:39:15 pm","durationMillis":2.603,"callArg":{"id":9},"failedCount":1,"packageQualifiedName":"testSuite.deleteid","relativePath":"testSuite\/deleteid.feature","scenarioResults":[{"sectionIndex":0,"stepResults":[{"result":{"nanos":516800,"millis":0.5168,"status":"passed"},"step":{"line":3,"prefix":"*","index":0,"text":"url 'https:\/\/reqres.in\/api\/users\/',id"},"stepLog":"19:39:15.677 testSuite\/beforeTest.feature:9\n* def delid = call read('deleteid.feature') createdids\nfeature call loop failed at index: 1, http call failed after 0 milliseconds for url: 8\norg.apache.http.ProtocolException: Target host is not specified\ntestSuite\/deleteid.feature:4\n"},{"result":{"nanos":2086200,"errorMessage":"http call failed after 0 milliseconds for url: 9\norg.apache.http.ProtocolException: Target host is not specified\ntestSuite\/deleteid.feature:4","millis":2.0862,"status":"failed"},"step":{"line":4,"prefix":"*","index":1,"text":"method DELETE"},"stepLog":"19:39:15.687 org.apache.http.ProtocolException: Target host is not specified, http call failed after 0 milliseconds for url: 9\n19:39:15.687 testSuite\/deleteid.feature:4\n* method DELETE\nhttp call failed after 0 milliseconds for url: 9\norg.apache.http.ProtocolException: Target host is not specified\ntestSuite\/deleteid.feature:4\n"},{"result":{"nanos":0,"millis":0.0,"status":"skipped"},"step":{"line":5,"prefix":"*","index":2,"text":"status 204"}}],"line":2,"description":"","durationMillis":2.603,"failed":true,"error":"http call failed after 0 milliseconds for url: 9\norg.apache.http.ProtocolException: Target host is not specified\ntestSuite\/deleteid.feature:4","executorName":"main","name":"Delete id","startTime":1680530955687,"refId":"[1:2]","endTime":1680530955687,"exampleIndex":-1}],"name":"Delete single ID","passedCount":0},{"prefixedPath":"testSuite\/deleteid.feature","loopIndex":3,"callDepth":1,"description":"","resultDate":"2023-04-03 07:39:15 pm","durationMillis":2.4319,"callArg":{"id":10},"failedCount":1,"packageQualifiedName":"testSuite.deleteid","relativePath":"testSuite\/deleteid.feature","scenarioResults":[{"sectionIndex":0,"stepResults":[{"result":{"nanos":329600,"millis":0.3296,"status":"passed"},"step":{"line":3,"prefix":"*","index":0,"text":"url 'https:\/\/reqres.in\/api\/users\/',id"},"stepLog":"19:39:15.687 testSuite\/beforeTest.feature:9\n* def delid = call read('deleteid.feature') createdids\nfeature call loop failed at index: 2, http call failed after 0 milliseconds for url: 9\norg.apache.http.ProtocolException: Target host is not specified\ntestSuite\/deleteid.feature:4\n"},{"result":{"nanos":2102300,"errorMessage":"http call failed after 0 milliseconds for url: 10\norg.apache.http.ProtocolException: Target host is not specified\ntestSuite\/deleteid.feature:4","millis":2.1023,"status":"failed"},"step":{"line":4,"prefix":"*","index":1,"text":"method DELETE"},"stepLog":"19:39:15.700 org.apache.http.ProtocolException: Target host is not specified, http call failed after 0 milliseconds for url: 10\n19:39:15.700 testSuite\/deleteid.feature:4\n* method DELETE\nhttp call failed after 0 milliseconds for url: 10\norg.apache.http.ProtocolException: Target host is not specified\ntestSuite\/deleteid.feature:4\n"},{"result":{"nanos":0,"millis":0.0,"status":"skipped"},"step":{"line":5,"prefix":"*","index":2,"text":"status 204"}}],"line":2,"description":"","durationMillis":2.4319,"failed":true,"error":"http call failed after 0 milliseconds for url: 10\norg.apache.http.ProtocolException: Target host is not specified\ntestSuite\/deleteid.feature:4","executorName":"main","name":"Delete id","startTime":1680530955700,"refId":"[1:2]","endTime":1680530955700,"exampleIndex":-1}],"name":"Delete single ID","passedCount":0},{"prefixedPath":"testSuite\/deleteid.feature","loopIndex":4,"callDepth":1,"description":"","resultDate":"2023-04-03 07:39:15 pm","durationMillis":2.548,"callArg":{"id":11},"failedCount":1,"packageQualifiedName":"testSuite.deleteid","relativePath":"testSuite\/deleteid.feature","scenarioResults":[{"sectionIndex":0,"stepResults":[{"result":{"nanos":406600,"millis":0.4066,"status":"passed"},"step":{"line":3,"prefix":"*","index":0,"text":"url 'https:\/\/reqres.in\/api\/users\/',id"},"stepLog":"19:39:15.700 testSuite\/beforeTest.feature:9\n* def delid = call read('deleteid.feature') createdids\nfeature call loop failed at index: 3, http call failed after 0 milliseconds for url: 10\norg.apache.http.ProtocolException: Target host is not specified\ntestSuite\/deleteid.feature:4\n"},{"result":{"nanos":2141400,"errorMessage":"http call failed after 0 milliseconds for url: 11\norg.apache.http.ProtocolException: Target host is not specified\ntestSuite\/deleteid.feature:4","millis":2.1414,"status":"failed"},"step":{"line":4,"prefix":"*","index":1,"text":"method DELETE"},"stepLog":"19:39:15.710 org.apache.http.ProtocolException: Target host is not specified, http call failed after 0 milliseconds for url: 11\n19:39:15.710 testSuite\/deleteid.feature:4\n* method DELETE\nhttp call failed after 0 milliseconds for url: 11\norg.apache.http.ProtocolException: Target host is not specified\ntestSuite\/deleteid.feature:4\n"},{"result":{"nanos":0,"millis":0.0,"status":"skipped"},"step":{"line":5,"prefix":"*","index":2,"text":"status 204"}}],"line":2,"description":"","durationMillis":2.548,"failed":true,"error":"http call failed after 0 milliseconds for url: 11\norg.apache.http.ProtocolException: Target host is not specified\ntestSuite\/deleteid.feature:4","executorName":"main","name":"Delete id","startTime":1680530955710,"refId":"[1:2]","endTime":1680530955710,"exampleIndex":-1}],"name":"Delete single ID","passedCount":0},{"prefixedPath":"testSuite\/deleteid.feature","loopIndex":5,"callDepth":1,"description":"","resultDate":"2023-04-03 07:39:15 pm","durationMillis":3.4995,"callArg":{"id":12},"failedCount":1,"packageQualifiedName":"testSuite.deleteid","relativePath":"testSuite\/deleteid.feature","scenarioResults":[{"sectionIndex":0,"stepResults":[{"result":{"nanos":1282900,"millis":1.2829,"status":"passed"},"step":{"line":3,"prefix":"*","index":0,"text":"url 'https:\/\/reqres.in\/api\/users\/',id"},"stepLog":"19:39:15.710 testSuite\/beforeTest.feature:9\n* def delid = call read('deleteid.feature') createdids\nfeature call loop failed at index: 4, http call failed after 0 milliseconds for url: 11\norg.apache.http.ProtocolException: Target host is not specified\ntestSuite\/deleteid.feature:4\n"},{"result":{"nanos":2216600,"errorMessage":"http call failed after 3 milliseconds for url: 12\norg.apache.http.ProtocolException: Target host is not specified\ntestSuite\/deleteid.feature:4","millis":2.2166,"status":"failed"},"step":{"line":4,"prefix":"*","index":1,"text":"method DELETE"},"stepLog":"19:39:15.725 org.apache.http.ProtocolException: Target host is not specified, http call failed after 3 milliseconds for url: 12\n19:39:15.725 testSuite\/deleteid.feature:4\n* method DELETE\nhttp call failed after 3 milliseconds for url: 12\norg.apache.http.ProtocolException: Target host is not specified\ntestSuite\/deleteid.feature:4\n"},{"result":{"nanos":0,"millis":0.0,"status":"skipped"},"step":{"line":5,"prefix":"*","index":2,"text":"status 204"}}],"line":2,"description":"","durationMillis":3.4995,"failed":true,"error":"http call failed after 3 milliseconds for url: 12\norg.apache.http.ProtocolException: Target host is not specified\ntestSuite\/deleteid.feature:4","executorName":"main","name":"Delete id","startTime":1680530955722,"refId":"[1:2]","endTime":1680530955725,"exampleIndex":-1}],"name":"Delete single ID","passedCount":0}]}],"line":2,"description":"","durationMillis":1271.318,"failed":true,"error":"feature call loop failed at index: 0, http call failed after 1 milliseconds for url: 7\norg.apache.http.ProtocolException: Target host is not specified\ntestSuite\/deleteid.feature:4\nfeature call loop failed at index: 1, http call failed after 0 milliseconds for url: 8\norg.apache.http.ProtocolException: Target host is not specified\ntestSuite\/deleteid.feature:4\nfeature call loop failed at index: 2, http call failed after 0 milliseconds for url: 9\norg.apache.http.ProtocolException: Target host is not specified\ntestSuite\/deleteid.feature:4\nfeature call loop failed at index: 3, http call failed after 0 milliseconds for url: 10\norg.apache.http.ProtocolException: Target host is not specified\ntestSuite\/deleteid.feature:4\nfeature call loop failed at index: 4, http call failed after 0 milliseconds for url: 11\norg.apache.http.ProtocolException: Target host is not specified\ntestSuite\/deleteid.feature:4\nfeature call loop failed at index: 5, http call failed after 3 milliseconds for url: 12\norg.apache.http.ProtocolException: Target host is not specified\ntestSuite\/deleteid.feature:4\ntestSuite\/beforeTest.feature:9","executorName":"main","name":"Delete all the created ids","startTime":1680530954427,"refId":"[1:2]","endTime":1680530955725,"exampleIndex":-1}],"callDepth":0,"name":"Delete all created ids","description":"","resultDate":"2023-04-03 07:39:15 pm","durationMillis":1271.318,"passedCount":0}