{"failedCount":1,"prefixedPath":"testSuite\/beforeTest.feature","packageQualifiedName":"testSuite.beforeTest","loopIndex":-1,"relativePath":"testSuite\/beforeTest.feature","scenarioResults":[{"sectionIndex":0,"stepResults":[{"result":{"nanos":117491600,"millis":117.4916,"status":"passed"},"step":{"line":4,"prefix":"*","index":0,"text":"url 'https:\/\/reqres.in\/api\/users?page=2'"}},{"result":{"nanos":755210300,"millis":755.2103,"status":"passed"},"step":{"line":5,"prefix":"*","index":1,"text":"method GET"},"stepLog":"19:29:10.663 request:\n1 > GET https:\/\/reqres.in\/api\/users?page=2\n1 > Host: reqres.in\n1 > Connection: Keep-Alive\n1 > User-Agent: Apache-HttpClient\/4.5.14 (Java\/17.0.6)\n1 > Accept-Encoding: gzip,deflate\n\n\n19:29:10.991 response time in milliseconds: 321\n1 < 200\n1 < Date: Mon, 03 Apr 2023 13:59:47 GMT\n1 < Content-Type: application\/json; charset=utf-8\n1 < Transfer-Encoding: chunked\n1 < Connection: keep-alive\n1 < X-Powered-By: Express\n1 < Access-Control-Allow-Origin: *\n1 < Etag: W\/\"406-ut0vzoCuidvyMf8arZpMpJ6ZRDw\"\n1 < Via: 1.1 vegur\n1 < Cache-Control: max-age=14400\n1 < CF-Cache-Status: HIT\n1 < Age: 974\n1 < Report-To: {\"endpoints\":[{\"url\":\"https:\\\/\\\/a.nel.cloudflare.com\\\/report\\\/v3?s=pjTKTXaZ3ZvzINxkRqJf9xE6I58kbvPRLItqn0QSrP1Cdn4Gt65fpHOejF3bW6FXSypRMjU3R74JHOvMju4r%2Bu9rop2s4Jy%2FyNJn6Tw6ESkGNNVVCLJcQN1FoA%3D%3D\"}],\"group\":\"cf-nel\",\"max_age\":604800}\n1 < NEL: {\"success_fraction\":0,\"report_to\":\"cf-nel\",\"max_age\":604800}\n1 < Vary: Accept-Encoding\n1 < Server: cloudflare\n1 < CF-RAY: 7b21d588d9313c01-BLR\n{\"page\":2,\"per_page\":6,\"total\":12,\"total_pages\":2,\"data\":[{\"id\":7,\"email\":\"michael.lawson@reqres.in\",\"first_name\":\"Michael\",\"last_name\":\"Lawson\",\"avatar\":\"https:\/\/reqres.in\/img\/faces\/7-image.jpg\"},{\"id\":8,\"email\":\"lindsay.ferguson@reqres.in\",\"first_name\":\"Lindsay\",\"last_name\":\"Ferguson\",\"avatar\":\"https:\/\/reqres.in\/img\/faces\/8-image.jpg\"},{\"id\":9,\"email\":\"tobias.funke@reqres.in\",\"first_name\":\"Tobias\",\"last_name\":\"Funke\",\"avatar\":\"https:\/\/reqres.in\/img\/faces\/9-image.jpg\"},{\"id\":10,\"email\":\"byron.fields@reqres.in\",\"first_name\":\"Byron\",\"last_name\":\"Fields\",\"avatar\":\"https:\/\/reqres.in\/img\/faces\/10-image.jpg\"},{\"id\":11,\"email\":\"george.edwards@reqres.in\",\"first_name\":\"George\",\"last_name\":\"Edwards\",\"avatar\":\"https:\/\/reqres.in\/img\/faces\/11-image.jpg\"},{\"id\":12,\"email\":\"rachel.howell@reqres.in\",\"first_name\":\"Rachel\",\"last_name\":\"Howell\",\"avatar\":\"https:\/\/reqres.in\/img\/faces\/12-image.jpg\"}],\"support\":{\"url\":\"https:\/\/reqres.in\/#support-heading\",\"text\":\"To keep ReqRes free, contributions towards server costs are appreciated!\"}}\n\n"},{"result":{"nanos":78607200,"millis":78.6072,"status":"passed"},"step":{"line":6,"prefix":"*","index":2,"text":"def dataids = $.data[*].id"}},{"result":{"nanos":127002500,"millis":127.0025,"status":"passed"},"step":{"line":7,"prefix":"*","index":3,"text":"print dataids"},"stepLog":"19:29:11.259 [print] [\n  7,\n  8,\n  9,\n  10,\n  11,\n  12\n]\n \n"},{"result":{"nanos":11154400,"millis":11.1544,"status":"passed"},"step":{"line":8,"prefix":"*","index":4,"text":"def createdids = karate.mapWithKey(dataids,'id')"}},{"result":{"nanos":2106500,"millis":2.1065,"status":"passed"},"step":{"line":9,"prefix":"*","index":5,"text":"print createdids"},"stepLog":"19:29:11.273 [print] [\n  {\n    \"id\": 7\n  },\n  {\n    \"id\": 8\n  },\n  {\n    \"id\": 9\n  },\n  {\n    \"id\": 10\n  },\n  {\n    \"id\": 11\n  },\n  {\n    \"id\": 12\n  }\n]\n \n"},{"result":{"nanos":39016000,"errorMessage":"js failed:\n>>>>\n01: read('deleteid.feature')\n<<<<\norg.graalvm.polyglot.PolyglotException: mismatched input '<EOF>' expecting {FEATURE_TAGS, FEATURE}\n- com.intuit.karate.core.FeatureParser.parse(FeatureParser.java:74)\n- com.intuit.karate.core.Feature.read(Feature.java:63)\n- com.intuit.karate.core.ScenarioFileReader.readFile(ScenarioFileReader.java:65)\n- com.intuit.karate.core.ScenarioEngine.lambda$new$0(ScenarioEngine.java:121)\n- <js>.:program(Unnamed:1)\n\ntestSuite\/beforeTest.feature:10","millis":39.016,"status":"failed"},"step":{"line":10,"prefix":"*","index":6,"text":"def delid = call read('deleteid.feature') createdids"},"stepLog":"19:29:11.319 testSuite\/beforeTest.feature:10\n* def delid = call read('deleteid.feature') createdids\njs failed:\n>>>>\n01: read('deleteid.feature')\n<<<<\norg.graalvm.polyglot.PolyglotException: mismatched input '<EOF>' expecting {FEATURE_TAGS, FEATURE}\n- com.intuit.karate.core.FeatureParser.parse(FeatureParser.java:74)\n- com.intuit.karate.core.Feature.read(Feature.java:63)\n- com.intuit.karate.core.ScenarioFileReader.readFile(ScenarioFileReader.java:65)\n- com.intuit.karate.core.ScenarioEngine.lambda$new$0(ScenarioEngine.java:121)\n- <js>.:program(Unnamed:1)\n\ntestSuite\/beforeTest.feature:10\n"}],"line":3,"description":"","durationMillis":1130.5885,"failed":true,"error":"js failed:\n>>>>\n01: read('deleteid.feature')\n<<<<\norg.graalvm.polyglot.PolyglotException: mismatched input '<EOF>' expecting {FEATURE_TAGS, FEATURE}\n- com.intuit.karate.core.FeatureParser.parse(FeatureParser.java:74)\n- com.intuit.karate.core.Feature.read(Feature.java:63)\n- com.intuit.karate.core.ScenarioFileReader.readFile(ScenarioFileReader.java:65)\n- com.intuit.karate.core.ScenarioEngine.lambda$new$0(ScenarioEngine.java:121)\n- <js>.:program(Unnamed:1)\n\ntestSuite\/beforeTest.feature:10","executorName":"main","name":"Delete all the created ids","startTime":1680530350153,"refId":"[1:3]","endTime":1680530351319,"exampleIndex":-1}],"callDepth":0,"name":"Delete all created ids","description":"","resultDate":"2023-04-03 07:29:11 pm","durationMillis":1130.5885,"passedCount":0}