{"failedCount":0,"prefixedPath":"testSuite\/GET_reqres.feature","packageQualifiedName":"testSuite.GET_reqres","loopIndex":-1,"relativePath":"testSuite\/GET_reqres.feature","scenarioResults":[{"sectionIndex":0,"stepResults":[{"result":{"nanos":136127000,"millis":136.127,"status":"passed"},"step":{"line":3,"prefix":"Given","index":0,"text":"url 'https:\/\/reqres.in\/api\/users?page=2'"}},{"result":{"nanos":879142400,"millis":879.1424,"status":"passed"},"step":{"line":4,"prefix":"When","index":1,"text":"method GET"},"stepLog":"19:46:52.415 request:\n1 > GET https:\/\/reqres.in\/api\/users?page=2\n1 > Host: reqres.in\n1 > Connection: Keep-Alive\n1 > User-Agent: Apache-HttpClient\/4.5.14 (Java\/17.0.6)\n1 > Accept-Encoding: gzip,deflate\n\n\n19:46:52.872 response time in milliseconds: 447\n1 < 200\n1 < Date: Mon, 03 Apr 2023 14:17:29 GMT\n1 < Content-Type: application\/json; charset=utf-8\n1 < Transfer-Encoding: chunked\n1 < Connection: keep-alive\n1 < X-Powered-By: Express\n1 < Access-Control-Allow-Origin: *\n1 < Etag: W\/\"406-ut0vzoCuidvyMf8arZpMpJ6ZRDw\"\n1 < Via: 1.1 vegur\n1 < Cache-Control: max-age=14400\n1 < CF-Cache-Status: HIT\n1 < Age: 2036\n1 < Report-To: {\"endpoints\":[{\"url\":\"https:\\\/\\\/a.nel.cloudflare.com\\\/report\\\/v3?s=UKavrpFvm4TKqB0sx2qvYQwrALvlTUzQ1Bp4Xz%2FiCsy0QjHZEWLXy72M34NXRfDp1ijh5ELMSenHJqLTyKpCT4WKyVWoVs%2FpM1TljwWyp0kcsx3bbKpHUySERA%3D%3D\"}],\"group\":\"cf-nel\",\"max_age\":604800}\n1 < NEL: {\"success_fraction\":0,\"report_to\":\"cf-nel\",\"max_age\":604800}\n1 < Vary: Accept-Encoding\n1 < Server: cloudflare\n1 < CF-RAY: 7b21ef7568463c0c-BLR\n{\"page\":2,\"per_page\":6,\"total\":12,\"total_pages\":2,\"data\":[{\"id\":7,\"email\":\"michael.lawson@reqres.in\",\"first_name\":\"Michael\",\"last_name\":\"Lawson\",\"avatar\":\"https:\/\/reqres.in\/img\/faces\/7-image.jpg\"},{\"id\":8,\"email\":\"lindsay.ferguson@reqres.in\",\"first_name\":\"Lindsay\",\"last_name\":\"Ferguson\",\"avatar\":\"https:\/\/reqres.in\/img\/faces\/8-image.jpg\"},{\"id\":9,\"email\":\"tobias.funke@reqres.in\",\"first_name\":\"Tobias\",\"last_name\":\"Funke\",\"avatar\":\"https:\/\/reqres.in\/img\/faces\/9-image.jpg\"},{\"id\":10,\"email\":\"byron.fields@reqres.in\",\"first_name\":\"Byron\",\"last_name\":\"Fields\",\"avatar\":\"https:\/\/reqres.in\/img\/faces\/10-image.jpg\"},{\"id\":11,\"email\":\"george.edwards@reqres.in\",\"first_name\":\"George\",\"last_name\":\"Edwards\",\"avatar\":\"https:\/\/reqres.in\/img\/faces\/11-image.jpg\"},{\"id\":12,\"email\":\"rachel.howell@reqres.in\",\"first_name\":\"Rachel\",\"last_name\":\"Howell\",\"avatar\":\"https:\/\/reqres.in\/img\/faces\/12-image.jpg\"}],\"support\":{\"url\":\"https:\/\/reqres.in\/#support-heading\",\"text\":\"To keep ReqRes free, contributions towards server costs are appreciated!\"}}\n\n"},{"result":{"nanos":38200,"millis":0.0382,"status":"passed"},"step":{"line":5,"prefix":"Then","index":2,"text":"status 200"}}],"executorName":"main","line":2,"name":"Call the GET users API","description":"","durationMillis":1015.3076,"startTime":1680531411893,"failed":false,"refId":"[1:2]","endTime":1680531412924,"exampleIndex":-1}],"callDepth":0,"name":"Make a GET request to reqres API","description":"","resultDate":"2023-04-03 07:46:52 pm","durationMillis":1015.3076,"passedCount":1}