{"failedCount":1,"prefixedPath":"testSuite\/beforeTest.feature","packageQualifiedName":"testSuite.beforeTest","loopIndex":-1,"relativePath":"testSuite\/beforeTest.feature","scenarioResults":[{"sectionIndex":0,"stepResults":[{"result":{"nanos":120044100,"millis":120.0441,"status":"passed"},"step":{"line":3,"prefix":"*","index":0,"text":"url 'https:\/\/reqres.in\/api\/users?page=2'"}},{"result":{"nanos":804167900,"millis":804.1679,"status":"passed"},"step":{"line":4,"prefix":"*","index":1,"text":"method GET"},"stepLog":"19:41:12.080 request:\n1 > GET https:\/\/reqres.in\/api\/users?page=2\n1 > Host: reqres.in\n1 > Connection: Keep-Alive\n1 > User-Agent: Apache-HttpClient\/4.5.14 (Java\/17.0.6)\n1 > Accept-Encoding: gzip,deflate\n\n\n19:41:12.445 response time in milliseconds: 352\n1 < 200\n1 < Date: Mon, 03 Apr 2023 14:11:48 GMT\n1 < Content-Type: application\/json; charset=utf-8\n1 < Transfer-Encoding: chunked\n1 < Connection: keep-alive\n1 < X-Powered-By: Express\n1 < Access-Control-Allow-Origin: *\n1 < Etag: W\/\"406-ut0vzoCuidvyMf8arZpMpJ6ZRDw\"\n1 < Via: 1.1 vegur\n1 < Cache-Control: max-age=14400\n1 < CF-Cache-Status: HIT\n1 < Age: 1695\n1 < Report-To: {\"endpoints\":[{\"url\":\"https:\\\/\\\/a.nel.cloudflare.com\\\/report\\\/v3?s=iqMIm%2FKJLad4Co7YkZZg2hmAO6%2FHv4sG9dDIQX9HjImM01QOerUySxeXLqWTEHHM1bBL4o7Mgpm7FAl4Ttcnb4Ynyh0SOSbpYm9R8%2BlFdnZI8QR8QWolXn3hsQ%3D%3D\"}],\"group\":\"cf-nel\",\"max_age\":604800}\n1 < NEL: {\"success_fraction\":0,\"report_to\":\"cf-nel\",\"max_age\":604800}\n1 < Vary: Accept-Encoding\n1 < Server: cloudflare\n1 < CF-RAY: 7b21e725c8a03c07-BLR\n{\"page\":2,\"per_page\":6,\"total\":12,\"total_pages\":2,\"data\":[{\"id\":7,\"email\":\"michael.lawson@reqres.in\",\"first_name\":\"Michael\",\"last_name\":\"Lawson\",\"avatar\":\"https:\/\/reqres.in\/img\/faces\/7-image.jpg\"},{\"id\":8,\"email\":\"lindsay.ferguson@reqres.in\",\"first_name\":\"Lindsay\",\"last_name\":\"Ferguson\",\"avatar\":\"https:\/\/reqres.in\/img\/faces\/8-image.jpg\"},{\"id\":9,\"email\":\"tobias.funke@reqres.in\",\"first_name\":\"Tobias\",\"last_name\":\"Funke\",\"avatar\":\"https:\/\/reqres.in\/img\/faces\/9-image.jpg\"},{\"id\":10,\"email\":\"byron.fields@reqres.in\",\"first_name\":\"Byron\",\"last_name\":\"Fields\",\"avatar\":\"https:\/\/reqres.in\/img\/faces\/10-image.jpg\"},{\"id\":11,\"email\":\"george.edwards@reqres.in\",\"first_name\":\"George\",\"last_name\":\"Edwards\",\"avatar\":\"https:\/\/reqres.in\/img\/faces\/11-image.jpg\"},{\"id\":12,\"email\":\"rachel.howell@reqres.in\",\"first_name\":\"Rachel\",\"last_name\":\"Howell\",\"avatar\":\"https:\/\/reqres.in\/img\/faces\/12-image.jpg\"}],\"support\":{\"url\":\"https:\/\/reqres.in\/#support-heading\",\"text\":\"To keep ReqRes free, contributions towards server costs are appreciated!\"}}\n\n"},{"result":{"nanos":73010100,"millis":73.0101,"status":"passed"},"step":{"line":5,"prefix":"*","index":2,"text":"def dataids = $.data[*].id"}},{"result":{"nanos":150071300,"millis":150.0713,"status":"passed"},"step":{"line":6,"prefix":"*","index":3,"text":"print dataids"},"stepLog":"19:41:12.734 [print] [\n  7,\n  8,\n  9,\n  10,\n  11,\n  12\n]\n \n"},{"result":{"nanos":10681900,"millis":10.6819,"status":"passed"},"step":{"line":7,"prefix":"*","index":4,"text":"def createdids = karate.mapWithKey(dataids,'id')"}},{"result":{"nanos":2870400,"millis":2.8704,"status":"passed"},"step":{"line":8,"prefix":"*","index":5,"text":"print createdids"},"stepLog":"19:41:12.750 [print] [\n  {\n    \"id\": 7\n  },\n  {\n    \"id\": 8\n  },\n  {\n    \"id\": 9\n  },\n  {\n    \"id\": 10\n  },\n  {\n    \"id\": 11\n  },\n  {\n    \"id\": 12\n  }\n]\n \n"},{"result":{"nanos":104329400,"errorMessage":"feature call loop failed at index: 0, no step-definition method match found for: Given url 'https:\/\/reqres.in\/api\/users',id\ntestSuite\/deleteid.feature:3\nfeature call loop failed at index: 1, no step-definition method match found for: Given url 'https:\/\/reqres.in\/api\/users',id\ntestSuite\/deleteid.feature:3\nfeature call loop failed at index: 2, no step-definition method match found for: Given url 'https:\/\/reqres.in\/api\/users',id\ntestSuite\/deleteid.feature:3\nfeature call loop failed at index: 3, no step-definition method match found for: Given url 'https:\/\/reqres.in\/api\/users',id\ntestSuite\/deleteid.feature:3\nfeature call loop failed at index: 4, no step-definition method match found for: Given url 'https:\/\/reqres.in\/api\/users',id\ntestSuite\/deleteid.feature:3\nfeature call loop failed at index: 5, no step-definition method match found for: Given url 'https:\/\/reqres.in\/api\/users',id\ntestSuite\/deleteid.feature:3\ntestSuite\/beforeTest.feature:9","millis":104.3294,"status":"failed"},"step":{"line":9,"prefix":"*","index":6,"text":"def delid = call read('deleteid.feature') createdids"},"stepLog":"19:41:12.854 testSuite\/beforeTest.feature:9\n* def delid = call read('deleteid.feature') createdids\nfeature call loop failed at index: 5, no step-definition method match found for: Given url 'https:\/\/reqres.in\/api\/users',id\ntestSuite\/deleteid.feature:3\n19:41:12.854 testSuite\/beforeTest.feature:9\n* def delid = call read('deleteid.feature') createdids\nfeature call loop failed at index: 0, no step-definition method match found for: Given url 'https:\/\/reqres.in\/api\/users',id\ntestSuite\/deleteid.feature:3\nfeature call loop failed at index: 1, no step-definition method match found for: Given url 'https:\/\/reqres.in\/api\/users',id\ntestSuite\/deleteid.feature:3\nfeature call loop failed at index: 2, no step-definition method match found for: Given url 'https:\/\/reqres.in\/api\/users',id\ntestSuite\/deleteid.feature:3\nfeature call loop failed at index: 3, no step-definition method match found for: Given url 'https:\/\/reqres.in\/api\/users',id\ntestSuite\/deleteid.feature:3\nfeature call loop failed at index: 4, no step-definition method match found for: Given url 'https:\/\/reqres.in\/api\/users',id\ntestSuite\/deleteid.feature:3\nfeature call loop failed at index: 5, no step-definition method match found for: Given url 'https:\/\/reqres.in\/api\/users',id\ntestSuite\/deleteid.feature:3\ntestSuite\/beforeTest.feature:9\n","callResults":[{"prefixedPath":"testSuite\/deleteid.feature","loopIndex":0,"callDepth":1,"description":"","resultDate":"2023-04-03 07:41:12 pm","durationMillis":0.0,"callArg":{"id":7},"failedCount":1,"packageQualifiedName":"testSuite.deleteid","relativePath":"testSuite\/deleteid.feature","scenarioResults":[{"sectionIndex":0,"stepResults":[{"result":{"nanos":0,"errorMessage":"no step-definition method match found for: Given url 'https:\/\/reqres.in\/api\/users',id\ntestSuite\/deleteid.feature:3","millis":0.0,"status":"failed"},"step":{"line":3,"prefix":"*","index":0,"text":"Given url 'https:\/\/reqres.in\/api\/users',id"},"stepLog":"19:41:12.787 testSuite\/deleteid.feature:3\n* Given url 'https:\/\/reqres.in\/api\/users',id\nno step-definition method match found for: Given url 'https:\/\/reqres.in\/api\/users',id\ntestSuite\/deleteid.feature:3\n"},{"result":{"nanos":0,"millis":0.0,"status":"skipped"},"step":{"line":4,"prefix":"*","index":1,"text":"When method DELETE"}},{"result":{"nanos":0,"millis":0.0,"status":"skipped"},"step":{"line":5,"prefix":"*","index":2,"text":"Then status 204"}}],"line":2,"description":"","durationMillis":0.0,"failed":true,"error":"no step-definition method match found for: Given url 'https:\/\/reqres.in\/api\/users',id\ntestSuite\/deleteid.feature:3","executorName":"main","name":"Delete id","startTime":1680531072774,"refId":"[1:2]","endTime":1680531072787,"exampleIndex":-1}],"name":"Delete single ID","passedCount":0},{"prefixedPath":"testSuite\/deleteid.feature","loopIndex":1,"callDepth":1,"description":"","resultDate":"2023-04-03 07:41:12 pm","durationMillis":0.0,"callArg":{"id":8},"failedCount":1,"packageQualifiedName":"testSuite.deleteid","relativePath":"testSuite\/deleteid.feature","scenarioResults":[{"sectionIndex":0,"stepResults":[{"result":{"nanos":0,"errorMessage":"no step-definition method match found for: Given url 'https:\/\/reqres.in\/api\/users',id\ntestSuite\/deleteid.feature:3","millis":0.0,"status":"failed"},"step":{"line":3,"prefix":"*","index":0,"text":"Given url 'https:\/\/reqres.in\/api\/users',id"},"stepLog":"19:41:12.795 testSuite\/beforeTest.feature:9\n* def delid = call read('deleteid.feature') createdids\nfeature call loop failed at index: 0, no step-definition method match found for: Given url 'https:\/\/reqres.in\/api\/users',id\ntestSuite\/deleteid.feature:3\n19:41:12.807 testSuite\/deleteid.feature:3\n* Given url 'https:\/\/reqres.in\/api\/users',id\nno step-definition method match found for: Given url 'https:\/\/reqres.in\/api\/users',id\ntestSuite\/deleteid.feature:3\n"},{"result":{"nanos":0,"millis":0.0,"status":"skipped"},"step":{"line":4,"prefix":"*","index":1,"text":"When method DELETE"}},{"result":{"nanos":0,"millis":0.0,"status":"skipped"},"step":{"line":5,"prefix":"*","index":2,"text":"Then status 204"}}],"line":2,"description":"","durationMillis":0.0,"failed":true,"error":"no step-definition method match found for: Given url 'https:\/\/reqres.in\/api\/users',id\ntestSuite\/deleteid.feature:3","executorName":"main","name":"Delete id","startTime":1680531072807,"refId":"[1:2]","endTime":1680531072807,"exampleIndex":-1}],"name":"Delete single ID","passedCount":0},{"prefixedPath":"testSuite\/deleteid.feature","loopIndex":2,"callDepth":1,"description":"","resultDate":"2023-04-03 07:41:12 pm","durationMillis":0.0,"callArg":{"id":9},"failedCount":1,"packageQualifiedName":"testSuite.deleteid","relativePath":"testSuite\/deleteid.feature","scenarioResults":[{"sectionIndex":0,"stepResults":[{"result":{"nanos":0,"errorMessage":"no step-definition method match found for: Given url 'https:\/\/reqres.in\/api\/users',id\ntestSuite\/deleteid.feature:3","millis":0.0,"status":"failed"},"step":{"line":3,"prefix":"*","index":0,"text":"Given url 'https:\/\/reqres.in\/api\/users',id"},"stepLog":"19:41:12.807 testSuite\/beforeTest.feature:9\n* def delid = call read('deleteid.feature') createdids\nfeature call loop failed at index: 1, no step-definition method match found for: Given url 'https:\/\/reqres.in\/api\/users',id\ntestSuite\/deleteid.feature:3\n19:41:12.815 testSuite\/deleteid.feature:3\n* Given url 'https:\/\/reqres.in\/api\/users',id\nno step-definition method match found for: Given url 'https:\/\/reqres.in\/api\/users',id\ntestSuite\/deleteid.feature:3\n"},{"result":{"nanos":0,"millis":0.0,"status":"skipped"},"step":{"line":4,"prefix":"*","index":1,"text":"When method DELETE"}},{"result":{"nanos":0,"millis":0.0,"status":"skipped"},"step":{"line":5,"prefix":"*","index":2,"text":"Then status 204"}}],"line":2,"description":"","durationMillis":0.0,"failed":true,"error":"no step-definition method match found for: Given url 'https:\/\/reqres.in\/api\/users',id\ntestSuite\/deleteid.feature:3","executorName":"main","name":"Delete id","startTime":1680531072815,"refId":"[1:2]","endTime":1680531072815,"exampleIndex":-1}],"name":"Delete single ID","passedCount":0},{"prefixedPath":"testSuite\/deleteid.feature","loopIndex":3,"callDepth":1,"description":"","resultDate":"2023-04-03 07:41:12 pm","durationMillis":0.0,"callArg":{"id":10},"failedCount":1,"packageQualifiedName":"testSuite.deleteid","relativePath":"testSuite\/deleteid.feature","scenarioResults":[{"sectionIndex":0,"stepResults":[{"result":{"nanos":0,"errorMessage":"no step-definition method match found for: Given url 'https:\/\/reqres.in\/api\/users',id\ntestSuite\/deleteid.feature:3","millis":0.0,"status":"failed"},"step":{"line":3,"prefix":"*","index":0,"text":"Given url 'https:\/\/reqres.in\/api\/users',id"},"stepLog":"19:41:12.815 testSuite\/beforeTest.feature:9\n* def delid = call read('deleteid.feature') createdids\nfeature call loop failed at index: 2, no step-definition method match found for: Given url 'https:\/\/reqres.in\/api\/users',id\ntestSuite\/deleteid.feature:3\n19:41:12.832 testSuite\/deleteid.feature:3\n* Given url 'https:\/\/reqres.in\/api\/users',id\nno step-definition method match found for: Given url 'https:\/\/reqres.in\/api\/users',id\ntestSuite\/deleteid.feature:3\n"},{"result":{"nanos":0,"millis":0.0,"status":"skipped"},"step":{"line":4,"prefix":"*","index":1,"text":"When method DELETE"}},{"result":{"nanos":0,"millis":0.0,"status":"skipped"},"step":{"line":5,"prefix":"*","index":2,"text":"Then status 204"}}],"line":2,"description":"","durationMillis":0.0,"failed":true,"error":"no step-definition method match found for: Given url 'https:\/\/reqres.in\/api\/users',id\ntestSuite\/deleteid.feature:3","executorName":"main","name":"Delete id","startTime":1680531072832,"refId":"[1:2]","endTime":1680531072832,"exampleIndex":-1}],"name":"Delete single ID","passedCount":0},{"prefixedPath":"testSuite\/deleteid.feature","loopIndex":4,"callDepth":1,"description":"","resultDate":"2023-04-03 07:41:12 pm","durationMillis":0.0,"callArg":{"id":11},"failedCount":1,"packageQualifiedName":"testSuite.deleteid","relativePath":"testSuite\/deleteid.feature","scenarioResults":[{"sectionIndex":0,"stepResults":[{"result":{"nanos":0,"errorMessage":"no step-definition method match found for: Given url 'https:\/\/reqres.in\/api\/users',id\ntestSuite\/deleteid.feature:3","millis":0.0,"status":"failed"},"step":{"line":3,"prefix":"*","index":0,"text":"Given url 'https:\/\/reqres.in\/api\/users',id"},"stepLog":"19:41:12.832 testSuite\/beforeTest.feature:9\n* def delid = call read('deleteid.feature') createdids\nfeature call loop failed at index: 3, no step-definition method match found for: Given url 'https:\/\/reqres.in\/api\/users',id\ntestSuite\/deleteid.feature:3\n19:41:12.840 testSuite\/deleteid.feature:3\n* Given url 'https:\/\/reqres.in\/api\/users',id\nno step-definition method match found for: Given url 'https:\/\/reqres.in\/api\/users',id\ntestSuite\/deleteid.feature:3\n"},{"result":{"nanos":0,"millis":0.0,"status":"skipped"},"step":{"line":4,"prefix":"*","index":1,"text":"When method DELETE"}},{"result":{"nanos":0,"millis":0.0,"status":"skipped"},"step":{"line":5,"prefix":"*","index":2,"text":"Then status 204"}}],"line":2,"description":"","durationMillis":0.0,"failed":true,"error":"no step-definition method match found for: Given url 'https:\/\/reqres.in\/api\/users',id\ntestSuite\/deleteid.feature:3","executorName":"main","name":"Delete id","startTime":1680531072840,"refId":"[1:2]","endTime":1680531072840,"exampleIndex":-1}],"name":"Delete single ID","passedCount":0},{"prefixedPath":"testSuite\/deleteid.feature","loopIndex":5,"callDepth":1,"description":"","resultDate":"2023-04-03 07:41:12 pm","durationMillis":0.0,"callArg":{"id":12},"failedCount":1,"packageQualifiedName":"testSuite.deleteid","relativePath":"testSuite\/deleteid.feature","scenarioResults":[{"sectionIndex":0,"stepResults":[{"result":{"nanos":0,"errorMessage":"no step-definition method match found for: Given url 'https:\/\/reqres.in\/api\/users',id\ntestSuite\/deleteid.feature:3","millis":0.0,"status":"failed"},"step":{"line":3,"prefix":"*","index":0,"text":"Given url 'https:\/\/reqres.in\/api\/users',id"},"stepLog":"19:41:12.840 testSuite\/beforeTest.feature:9\n* def delid = call read('deleteid.feature') createdids\nfeature call loop failed at index: 4, no step-definition method match found for: Given url 'https:\/\/reqres.in\/api\/users',id\ntestSuite\/deleteid.feature:3\n19:41:12.854 testSuite\/deleteid.feature:3\n* Given url 'https:\/\/reqres.in\/api\/users',id\nno step-definition method match found for: Given url 'https:\/\/reqres.in\/api\/users',id\ntestSuite\/deleteid.feature:3\n"},{"result":{"nanos":0,"millis":0.0,"status":"skipped"},"step":{"line":4,"prefix":"*","index":1,"text":"When method DELETE"}},{"result":{"nanos":0,"millis":0.0,"status":"skipped"},"step":{"line":5,"prefix":"*","index":2,"text":"Then status 204"}}],"line":2,"description":"","durationMillis":0.0,"failed":true,"error":"no step-definition method match found for: Given url 'https:\/\/reqres.in\/api\/users',id\ntestSuite\/deleteid.feature:3","executorName":"main","name":"Delete id","startTime":1680531072848,"refId":"[1:2]","endTime":1680531072854,"exampleIndex":-1}],"name":"Delete single ID","passedCount":0}]}],"line":2,"description":"","durationMillis":1265.1751,"failed":true,"error":"feature call loop failed at index: 0, no step-definition method match found for: Given url 'https:\/\/reqres.in\/api\/users',id\ntestSuite\/deleteid.feature:3\nfeature call loop failed at index: 1, no step-definition method match found for: Given url 'https:\/\/reqres.in\/api\/users',id\ntestSuite\/deleteid.feature:3\nfeature call loop failed at index: 2, no step-definition method match found for: Given url 'https:\/\/reqres.in\/api\/users',id\ntestSuite\/deleteid.feature:3\nfeature call loop failed at index: 3, no step-definition method match found for: Given url 'https:\/\/reqres.in\/api\/users',id\ntestSuite\/deleteid.feature:3\nfeature call loop failed at index: 4, no step-definition method match found for: Given url 'https:\/\/reqres.in\/api\/users',id\ntestSuite\/deleteid.feature:3\nfeature call loop failed at index: 5, no step-definition method match found for: Given url 'https:\/\/reqres.in\/api\/users',id\ntestSuite\/deleteid.feature:3\ntestSuite\/beforeTest.feature:9","executorName":"main","name":"Delete all the created ids","startTime":1680531071563,"refId":"[1:2]","endTime":1680531072854,"exampleIndex":-1}],"callDepth":0,"name":"Delete all created ids","description":"","resultDate":"2023-04-03 07:41:12 pm","durationMillis":1265.1751,"passedCount":0}