{"failedCount":1,"prefixedPath":"testSuite\/beforeTest.feature","packageQualifiedName":"testSuite.beforeTest","loopIndex":-1,"relativePath":"testSuite\/beforeTest.feature","scenarioResults":[{"sectionIndex":0,"stepResults":[{"result":{"nanos":108037000,"millis":108.037,"status":"passed"},"step":{"line":3,"prefix":"*","index":0,"text":"url 'https:\/\/reqres.in\/api\/users?page=2'"}},{"result":{"nanos":858724900,"millis":858.7249,"status":"passed"},"step":{"line":4,"prefix":"*","index":1,"text":"method GET"},"stepLog":"19:35:32.527 request:\n1 > GET https:\/\/reqres.in\/api\/users?page=2\n1 > Host: reqres.in\n1 > Connection: Keep-Alive\n1 > User-Agent: Apache-HttpClient\/4.5.14 (Java\/17.0.6)\n1 > Accept-Encoding: gzip,deflate\n\n\n19:35:32.881 response time in milliseconds: 349\n1 < 200\n1 < Date: Mon, 03 Apr 2023 14:06:09 GMT\n1 < Content-Type: application\/json; charset=utf-8\n1 < Transfer-Encoding: chunked\n1 < Connection: keep-alive\n1 < X-Powered-By: Express\n1 < Access-Control-Allow-Origin: *\n1 < Etag: W\/\"406-ut0vzoCuidvyMf8arZpMpJ6ZRDw\"\n1 < Via: 1.1 vegur\n1 < Cache-Control: max-age=14400\n1 < CF-Cache-Status: HIT\n1 < Age: 1356\n1 < Report-To: {\"endpoints\":[{\"url\":\"https:\\\/\\\/a.nel.cloudflare.com\\\/report\\\/v3?s=peYFsPJ%2FNmWHDhZjpR5oo0BVTt3PWs9HzTPwfAWr5HFNQPPMwkd1RMtYLtSo5E6huo%2FY1%2BXvZvW2qFy6crsLJ4%2Fg58bisqNbuyV98Ms%2BSIkmkLhpzCOYW27f0g%3D%3D\"}],\"group\":\"cf-nel\",\"max_age\":604800}\n1 < NEL: {\"success_fraction\":0,\"report_to\":\"cf-nel\",\"max_age\":604800}\n1 < Vary: Accept-Encoding\n1 < Server: cloudflare\n1 < CF-RAY: 7b21dedb9acf83f3-BLR\n{\"page\":2,\"per_page\":6,\"total\":12,\"total_pages\":2,\"data\":[{\"id\":7,\"email\":\"michael.lawson@reqres.in\",\"first_name\":\"Michael\",\"last_name\":\"Lawson\",\"avatar\":\"https:\/\/reqres.in\/img\/faces\/7-image.jpg\"},{\"id\":8,\"email\":\"lindsay.ferguson@reqres.in\",\"first_name\":\"Lindsay\",\"last_name\":\"Ferguson\",\"avatar\":\"https:\/\/reqres.in\/img\/faces\/8-image.jpg\"},{\"id\":9,\"email\":\"tobias.funke@reqres.in\",\"first_name\":\"Tobias\",\"last_name\":\"Funke\",\"avatar\":\"https:\/\/reqres.in\/img\/faces\/9-image.jpg\"},{\"id\":10,\"email\":\"byron.fields@reqres.in\",\"first_name\":\"Byron\",\"last_name\":\"Fields\",\"avatar\":\"https:\/\/reqres.in\/img\/faces\/10-image.jpg\"},{\"id\":11,\"email\":\"george.edwards@reqres.in\",\"first_name\":\"George\",\"last_name\":\"Edwards\",\"avatar\":\"https:\/\/reqres.in\/img\/faces\/11-image.jpg\"},{\"id\":12,\"email\":\"rachel.howell@reqres.in\",\"first_name\":\"Rachel\",\"last_name\":\"Howell\",\"avatar\":\"https:\/\/reqres.in\/img\/faces\/12-image.jpg\"}],\"support\":{\"url\":\"https:\/\/reqres.in\/#support-heading\",\"text\":\"To keep ReqRes free, contributions towards server costs are appreciated!\"}}\n\n"},{"result":{"nanos":86479900,"millis":86.4799,"status":"passed"},"step":{"line":5,"prefix":"*","index":2,"text":"def dataids = $.data[*].id"}},{"result":{"nanos":149631800,"millis":149.6318,"status":"passed"},"step":{"line":6,"prefix":"*","index":3,"text":"print dataids"},"stepLog":"19:35:33.177 [print] [\n  7,\n  8,\n  9,\n  10,\n  11,\n  12\n]\n \n"},{"result":{"nanos":10323400,"millis":10.3234,"status":"passed"},"step":{"line":7,"prefix":"*","index":4,"text":"def createdids = karate.mapWithKey(dataids,'id')"}},{"result":{"nanos":2184700,"millis":2.1847,"status":"passed"},"step":{"line":8,"prefix":"*","index":5,"text":"print createdids"},"stepLog":"19:35:33.190 [print] [\n  {\n    \"id\": 7\n  },\n  {\n    \"id\": 8\n  },\n  {\n    \"id\": 9\n  },\n  {\n    \"id\": 10\n  },\n  {\n    \"id\": 11\n  },\n  {\n    \"id\": 12\n  }\n]\n \n"},{"result":{"nanos":124735200,"errorMessage":"feature call loop failed at index: 0, http call failed after 0 milliseconds for url: 7\norg.apache.http.ProtocolException: Target host is not specified\ntestSuite\/deleteid.feature:4\nfeature call loop failed at index: 1, http call failed after 1 milliseconds for url: 8\norg.apache.http.ProtocolException: Target host is not specified\ntestSuite\/deleteid.feature:4\nfeature call loop failed at index: 2, http call failed after 0 milliseconds for url: 9\norg.apache.http.ProtocolException: Target host is not specified\ntestSuite\/deleteid.feature:4\nfeature call loop failed at index: 3, http call failed after 1 milliseconds for url: 10\norg.apache.http.ProtocolException: Target host is not specified\ntestSuite\/deleteid.feature:4\nfeature call loop failed at index: 4, http call failed after 0 milliseconds for url: 11\norg.apache.http.ProtocolException: Target host is not specified\ntestSuite\/deleteid.feature:4\nfeature call loop failed at index: 5, http call failed after 5 milliseconds for url: 12\norg.apache.http.ProtocolException: Target host is not specified\ntestSuite\/deleteid.feature:4\ntestSuite\/beforeTest.feature:9","millis":124.7352,"status":"failed"},"step":{"line":9,"prefix":"*","index":6,"text":"def delid = call read('deleteid.feature') createdids"},"stepLog":"19:35:33.315 testSuite\/beforeTest.feature:9\n* def delid = call read('deleteid.feature') createdids\nfeature call loop failed at index: 5, http call failed after 5 milliseconds for url: 12\norg.apache.http.ProtocolException: Target host is not specified\ntestSuite\/deleteid.feature:4\n19:35:33.315 testSuite\/beforeTest.feature:9\n* def delid = call read('deleteid.feature') createdids\nfeature call loop failed at index: 0, http call failed after 0 milliseconds for url: 7\norg.apache.http.ProtocolException: Target host is not specified\ntestSuite\/deleteid.feature:4\nfeature call loop failed at index: 1, http call failed after 1 milliseconds for url: 8\norg.apache.http.ProtocolException: Target host is not specified\ntestSuite\/deleteid.feature:4\nfeature call loop failed at index: 2, http call failed after 0 milliseconds for url: 9\norg.apache.http.ProtocolException: Target host is not specified\ntestSuite\/deleteid.feature:4\nfeature call loop failed at index: 3, http call failed after 1 milliseconds for url: 10\norg.apache.http.ProtocolException: Target host is not specified\ntestSuite\/deleteid.feature:4\nfeature call loop failed at index: 4, http call failed after 0 milliseconds for url: 11\norg.apache.http.ProtocolException: Target host is not specified\ntestSuite\/deleteid.feature:4\nfeature call loop failed at index: 5, http call failed after 5 milliseconds for url: 12\norg.apache.http.ProtocolException: Target host is not specified\ntestSuite\/deleteid.feature:4\ntestSuite\/beforeTest.feature:9\n","callResults":[{"prefixedPath":"testSuite\/deleteid.feature","loopIndex":0,"callDepth":1,"description":"","resultDate":"2023-04-03 07:35:33 pm","durationMillis":15.3642,"callArg":{"id":7},"failedCount":1,"packageQualifiedName":"testSuite.deleteid","relativePath":"testSuite\/deleteid.feature","scenarioResults":[{"sectionIndex":0,"stepResults":[{"result":{"nanos":5924700,"millis":5.9247,"status":"passed"},"step":{"line":3,"prefix":"*","index":0,"text":"url 'https:\/\/reqres.in\/api\/users\/',id"}},{"result":{"nanos":9439500,"errorMessage":"http call failed after 0 milliseconds for url: 7\norg.apache.http.ProtocolException: Target host is not specified\ntestSuite\/deleteid.feature:4","millis":9.4395,"status":"failed"},"step":{"line":4,"prefix":"*","index":1,"text":"method DELETE"},"stepLog":"19:35:33.236 org.apache.http.ProtocolException: Target host is not specified, http call failed after 0 milliseconds for url: 7\n19:35:33.243 testSuite\/deleteid.feature:4\n* method DELETE\nhttp call failed after 0 milliseconds for url: 7\norg.apache.http.ProtocolException: Target host is not specified\ntestSuite\/deleteid.feature:4\n"},{"result":{"nanos":0,"millis":0.0,"status":"skipped"},"step":{"line":5,"prefix":"*","index":2,"text":"status 204"}}],"line":2,"description":"","durationMillis":15.3642,"failed":true,"error":"http call failed after 0 milliseconds for url: 7\norg.apache.http.ProtocolException: Target host is not specified\ntestSuite\/deleteid.feature:4","executorName":"main","name":"Delete id","startTime":1680530733218,"refId":"[1:2]","endTime":1680530733243,"exampleIndex":-1}],"name":"Delete single ID","passedCount":0},{"prefixedPath":"testSuite\/deleteid.feature","loopIndex":1,"callDepth":1,"description":"","resultDate":"2023-04-03 07:35:33 pm","durationMillis":2.8093,"callArg":{"id":8},"failedCount":1,"packageQualifiedName":"testSuite.deleteid","relativePath":"testSuite\/deleteid.feature","scenarioResults":[{"sectionIndex":0,"stepResults":[{"result":{"nanos":666200,"millis":0.6662,"status":"passed"},"step":{"line":3,"prefix":"*","index":0,"text":"url 'https:\/\/reqres.in\/api\/users\/',id"},"stepLog":"19:35:33.252 testSuite\/beforeTest.feature:9\n* def delid = call read('deleteid.feature') createdids\nfeature call loop failed at index: 0, http call failed after 0 milliseconds for url: 7\norg.apache.http.ProtocolException: Target host is not specified\ntestSuite\/deleteid.feature:4\n"},{"result":{"nanos":2143100,"errorMessage":"http call failed after 1 milliseconds for url: 8\norg.apache.http.ProtocolException: Target host is not specified\ntestSuite\/deleteid.feature:4","millis":2.1431,"status":"failed"},"step":{"line":4,"prefix":"*","index":1,"text":"method DELETE"},"stepLog":"19:35:33.266 org.apache.http.ProtocolException: Target host is not specified, http call failed after 1 milliseconds for url: 8\n19:35:33.267 testSuite\/deleteid.feature:4\n* method DELETE\nhttp call failed after 1 milliseconds for url: 8\norg.apache.http.ProtocolException: Target host is not specified\ntestSuite\/deleteid.feature:4\n"},{"result":{"nanos":0,"millis":0.0,"status":"skipped"},"step":{"line":5,"prefix":"*","index":2,"text":"status 204"}}],"line":2,"description":"","durationMillis":2.8093,"failed":true,"error":"http call failed after 1 milliseconds for url: 8\norg.apache.http.ProtocolException: Target host is not specified\ntestSuite\/deleteid.feature:4","executorName":"main","name":"Delete id","startTime":1680530733259,"refId":"[1:2]","endTime":1680530733267,"exampleIndex":-1}],"name":"Delete single ID","passedCount":0},{"prefixedPath":"testSuite\/deleteid.feature","loopIndex":2,"callDepth":1,"description":"","resultDate":"2023-04-03 07:35:33 pm","durationMillis":3.1507,"callArg":{"id":9},"failedCount":1,"packageQualifiedName":"testSuite.deleteid","relativePath":"testSuite\/deleteid.feature","scenarioResults":[{"sectionIndex":0,"stepResults":[{"result":{"nanos":762800,"millis":0.7628,"status":"passed"},"step":{"line":3,"prefix":"*","index":0,"text":"url 'https:\/\/reqres.in\/api\/users\/',id"},"stepLog":"19:35:33.267 testSuite\/beforeTest.feature:9\n* def delid = call read('deleteid.feature') createdids\nfeature call loop failed at index: 1, http call failed after 1 milliseconds for url: 8\norg.apache.http.ProtocolException: Target host is not specified\ntestSuite\/deleteid.feature:4\n"},{"result":{"nanos":2387900,"errorMessage":"http call failed after 0 milliseconds for url: 9\norg.apache.http.ProtocolException: Target host is not specified\ntestSuite\/deleteid.feature:4","millis":2.3879,"status":"failed"},"step":{"line":4,"prefix":"*","index":1,"text":"method DELETE"},"stepLog":"19:35:33.279 org.apache.http.ProtocolException: Target host is not specified, http call failed after 0 milliseconds for url: 9\n19:35:33.279 testSuite\/deleteid.feature:4\n* method DELETE\nhttp call failed after 0 milliseconds for url: 9\norg.apache.http.ProtocolException: Target host is not specified\ntestSuite\/deleteid.feature:4\n"},{"result":{"nanos":0,"millis":0.0,"status":"skipped"},"step":{"line":5,"prefix":"*","index":2,"text":"status 204"}}],"line":2,"description":"","durationMillis":3.1507,"failed":true,"error":"http call failed after 0 milliseconds for url: 9\norg.apache.http.ProtocolException: Target host is not specified\ntestSuite\/deleteid.feature:4","executorName":"main","name":"Delete id","startTime":1680530733276,"refId":"[1:2]","endTime":1680530733279,"exampleIndex":-1}],"name":"Delete single ID","passedCount":0},{"prefixedPath":"testSuite\/deleteid.feature","loopIndex":3,"callDepth":1,"description":"","resultDate":"2023-04-03 07:35:33 pm","durationMillis":2.526,"callArg":{"id":10},"failedCount":1,"packageQualifiedName":"testSuite.deleteid","relativePath":"testSuite\/deleteid.feature","scenarioResults":[{"sectionIndex":0,"stepResults":[{"result":{"nanos":528300,"millis":0.5283,"status":"passed"},"step":{"line":3,"prefix":"*","index":0,"text":"url 'https:\/\/reqres.in\/api\/users\/',id"},"stepLog":"19:35:33.279 testSuite\/beforeTest.feature:9\n* def delid = call read('deleteid.feature') createdids\nfeature call loop failed at index: 2, http call failed after 0 milliseconds for url: 9\norg.apache.http.ProtocolException: Target host is not specified\ntestSuite\/deleteid.feature:4\n"},{"result":{"nanos":1997700,"errorMessage":"http call failed after 1 milliseconds for url: 10\norg.apache.http.ProtocolException: Target host is not specified\ntestSuite\/deleteid.feature:4","millis":1.9977,"status":"failed"},"step":{"line":4,"prefix":"*","index":1,"text":"method DELETE"},"stepLog":"19:35:33.292 org.apache.http.ProtocolException: Target host is not specified, http call failed after 1 milliseconds for url: 10\n19:35:33.292 testSuite\/deleteid.feature:4\n* method DELETE\nhttp call failed after 1 milliseconds for url: 10\norg.apache.http.ProtocolException: Target host is not specified\ntestSuite\/deleteid.feature:4\n"},{"result":{"nanos":0,"millis":0.0,"status":"skipped"},"step":{"line":5,"prefix":"*","index":2,"text":"status 204"}}],"line":2,"description":"","durationMillis":2.526,"failed":true,"error":"http call failed after 1 milliseconds for url: 10\norg.apache.http.ProtocolException: Target host is not specified\ntestSuite\/deleteid.feature:4","executorName":"main","name":"Delete id","startTime":1680530733290,"refId":"[1:2]","endTime":1680530733292,"exampleIndex":-1}],"name":"Delete single ID","passedCount":0},{"prefixedPath":"testSuite\/deleteid.feature","loopIndex":4,"callDepth":1,"description":"","resultDate":"2023-04-03 07:35:33 pm","durationMillis":2.7816,"callArg":{"id":11},"failedCount":1,"packageQualifiedName":"testSuite.deleteid","relativePath":"testSuite\/deleteid.feature","scenarioResults":[{"sectionIndex":0,"stepResults":[{"result":{"nanos":550800,"millis":0.5508,"status":"passed"},"step":{"line":3,"prefix":"*","index":0,"text":"url 'https:\/\/reqres.in\/api\/users\/',id"},"stepLog":"19:35:33.292 testSuite\/beforeTest.feature:9\n* def delid = call read('deleteid.feature') createdids\nfeature call loop failed at index: 3, http call failed after 1 milliseconds for url: 10\norg.apache.http.ProtocolException: Target host is not specified\ntestSuite\/deleteid.feature:4\n"},{"result":{"nanos":2230800,"errorMessage":"http call failed after 0 milliseconds for url: 11\norg.apache.http.ProtocolException: Target host is not specified\ntestSuite\/deleteid.feature:4","millis":2.2308,"status":"failed"},"step":{"line":4,"prefix":"*","index":1,"text":"method DELETE"},"stepLog":"19:35:33.302 org.apache.http.ProtocolException: Target host is not specified, http call failed after 0 milliseconds for url: 11\n19:35:33.302 testSuite\/deleteid.feature:4\n* method DELETE\nhttp call failed after 0 milliseconds for url: 11\norg.apache.http.ProtocolException: Target host is not specified\ntestSuite\/deleteid.feature:4\n"},{"result":{"nanos":0,"millis":0.0,"status":"skipped"},"step":{"line":5,"prefix":"*","index":2,"text":"status 204"}}],"line":2,"description":"","durationMillis":2.7816,"failed":true,"error":"http call failed after 0 milliseconds for url: 11\norg.apache.http.ProtocolException: Target host is not specified\ntestSuite\/deleteid.feature:4","executorName":"main","name":"Delete id","startTime":1680530733301,"refId":"[1:2]","endTime":1680530733302,"exampleIndex":-1}],"name":"Delete single ID","passedCount":0},{"prefixedPath":"testSuite\/deleteid.feature","loopIndex":5,"callDepth":1,"description":"","resultDate":"2023-04-03 07:35:33 pm","durationMillis":2.538,"callArg":{"id":12},"failedCount":1,"packageQualifiedName":"testSuite.deleteid","relativePath":"testSuite\/deleteid.feature","scenarioResults":[{"sectionIndex":0,"stepResults":[{"result":{"nanos":511000,"millis":0.511,"status":"passed"},"step":{"line":3,"prefix":"*","index":0,"text":"url 'https:\/\/reqres.in\/api\/users\/',id"},"stepLog":"19:35:33.302 testSuite\/beforeTest.feature:9\n* def delid = call read('deleteid.feature') createdids\nfeature call loop failed at index: 4, http call failed after 0 milliseconds for url: 11\norg.apache.http.ProtocolException: Target host is not specified\ntestSuite\/deleteid.feature:4\n"},{"result":{"nanos":2027000,"errorMessage":"http call failed after 5 milliseconds for url: 12\norg.apache.http.ProtocolException: Target host is not specified\ntestSuite\/deleteid.feature:4","millis":2.027,"status":"failed"},"step":{"line":4,"prefix":"*","index":1,"text":"method DELETE"},"stepLog":"19:35:33.315 org.apache.http.ProtocolException: Target host is not specified, http call failed after 5 milliseconds for url: 12\n19:35:33.315 testSuite\/deleteid.feature:4\n* method DELETE\nhttp call failed after 5 milliseconds for url: 12\norg.apache.http.ProtocolException: Target host is not specified\ntestSuite\/deleteid.feature:4\n"},{"result":{"nanos":0,"millis":0.0,"status":"skipped"},"step":{"line":5,"prefix":"*","index":2,"text":"status 204"}}],"line":2,"description":"","durationMillis":2.538,"failed":true,"error":"http call failed after 5 milliseconds for url: 12\norg.apache.http.ProtocolException: Target host is not specified\ntestSuite\/deleteid.feature:4","executorName":"main","name":"Delete id","startTime":1680530733310,"refId":"[1:2]","endTime":1680530733315,"exampleIndex":-1}],"name":"Delete single ID","passedCount":0}]}],"line":2,"description":"","durationMillis":1340.1169,"failed":true,"error":"feature call loop failed at index: 0, http call failed after 0 milliseconds for url: 7\norg.apache.http.ProtocolException: Target host is not specified\ntestSuite\/deleteid.feature:4\nfeature call loop failed at index: 1, http call failed after 1 milliseconds for url: 8\norg.apache.http.ProtocolException: Target host is not specified\ntestSuite\/deleteid.feature:4\nfeature call loop failed at index: 2, http call failed after 0 milliseconds for url: 9\norg.apache.http.ProtocolException: Target host is not specified\ntestSuite\/deleteid.feature:4\nfeature call loop failed at index: 3, http call failed after 1 milliseconds for url: 10\norg.apache.http.ProtocolException: Target host is not specified\ntestSuite\/deleteid.feature:4\nfeature call loop failed at index: 4, http call failed after 0 milliseconds for url: 11\norg.apache.http.ProtocolException: Target host is not specified\ntestSuite\/deleteid.feature:4\nfeature call loop failed at index: 5, http call failed after 5 milliseconds for url: 12\norg.apache.http.ProtocolException: Target host is not specified\ntestSuite\/deleteid.feature:4\ntestSuite\/beforeTest.feature:9","executorName":"main","name":"Delete all the created ids","startTime":1680530731947,"refId":"[1:2]","endTime":1680530733315,"exampleIndex":-1}],"callDepth":0,"name":"Delete all created ids","description":"","resultDate":"2023-04-03 07:35:33 pm","durationMillis":1340.1169,"passedCount":0}