{"failedCount":1,"prefixedPath":"testSuite\/beforeTest.feature","packageQualifiedName":"testSuite.beforeTest","loopIndex":-1,"relativePath":"testSuite\/beforeTest.feature","scenarioResults":[{"sectionIndex":0,"stepResults":[{"result":{"nanos":100325500,"millis":100.3255,"status":"passed"},"step":{"line":3,"prefix":"*","index":0,"text":"url 'https:\/\/reqres.in\/api\/users?page=2'"}},{"result":{"nanos":786013300,"millis":786.0133,"status":"passed"},"step":{"line":4,"prefix":"*","index":1,"text":"method GET"},"stepLog":"19:38:37.938 request:\n1 > GET https:\/\/reqres.in\/api\/users?page=2\n1 > Host: reqres.in\n1 > Connection: Keep-Alive\n1 > User-Agent: Apache-HttpClient\/4.5.14 (Java\/17.0.6)\n1 > Accept-Encoding: gzip,deflate\n\n\n19:38:38.277 response time in milliseconds: 335\n1 < 200\n1 < Date: Mon, 03 Apr 2023 14:09:14 GMT\n1 < Content-Type: application\/json; charset=utf-8\n1 < Transfer-Encoding: chunked\n1 < Connection: keep-alive\n1 < X-Powered-By: Express\n1 < Access-Control-Allow-Origin: *\n1 < Etag: W\/\"406-ut0vzoCuidvyMf8arZpMpJ6ZRDw\"\n1 < Via: 1.1 vegur\n1 < Cache-Control: max-age=14400\n1 < CF-Cache-Status: HIT\n1 < Age: 1541\n1 < Report-To: {\"endpoints\":[{\"url\":\"https:\\\/\\\/a.nel.cloudflare.com\\\/report\\\/v3?s=ksGX00ziyKLcEhPk%2Fd8e%2BoFeBOijwbNLDojbY9A8jdUop1K7M%2BTmUXfSWs092bKcF88sZv0qSp1tR%2BWNYchXfRYonR2Dix8lDNBlSFiGvZ4P%2BChO1qBcXR%2FeZw%3D%3D\"}],\"group\":\"cf-nel\",\"max_age\":604800}\n1 < NEL: {\"success_fraction\":0,\"report_to\":\"cf-nel\",\"max_age\":604800}\n1 < Vary: Accept-Encoding\n1 < Server: cloudflare\n1 < CF-RAY: 7b21e36249ee3c06-BLR\n{\"page\":2,\"per_page\":6,\"total\":12,\"total_pages\":2,\"data\":[{\"id\":7,\"email\":\"michael.lawson@reqres.in\",\"first_name\":\"Michael\",\"last_name\":\"Lawson\",\"avatar\":\"https:\/\/reqres.in\/img\/faces\/7-image.jpg\"},{\"id\":8,\"email\":\"lindsay.ferguson@reqres.in\",\"first_name\":\"Lindsay\",\"last_name\":\"Ferguson\",\"avatar\":\"https:\/\/reqres.in\/img\/faces\/8-image.jpg\"},{\"id\":9,\"email\":\"tobias.funke@reqres.in\",\"first_name\":\"Tobias\",\"last_name\":\"Funke\",\"avatar\":\"https:\/\/reqres.in\/img\/faces\/9-image.jpg\"},{\"id\":10,\"email\":\"byron.fields@reqres.in\",\"first_name\":\"Byron\",\"last_name\":\"Fields\",\"avatar\":\"https:\/\/reqres.in\/img\/faces\/10-image.jpg\"},{\"id\":11,\"email\":\"george.edwards@reqres.in\",\"first_name\":\"George\",\"last_name\":\"Edwards\",\"avatar\":\"https:\/\/reqres.in\/img\/faces\/11-image.jpg\"},{\"id\":12,\"email\":\"rachel.howell@reqres.in\",\"first_name\":\"Rachel\",\"last_name\":\"Howell\",\"avatar\":\"https:\/\/reqres.in\/img\/faces\/12-image.jpg\"}],\"support\":{\"url\":\"https:\/\/reqres.in\/#support-heading\",\"text\":\"To keep ReqRes free, contributions towards server costs are appreciated!\"}}\n\n"},{"result":{"nanos":83236300,"millis":83.2363,"status":"passed"},"step":{"line":5,"prefix":"*","index":2,"text":"def dataids = $.data[*].id"}},{"result":{"nanos":138997300,"millis":138.9973,"status":"passed"},"step":{"line":6,"prefix":"*","index":3,"text":"print dataids"},"stepLog":"19:38:38.565 [print] [\n  7,\n  8,\n  9,\n  10,\n  11,\n  12\n]\n \n"},{"result":{"nanos":11366900,"millis":11.3669,"status":"passed"},"step":{"line":7,"prefix":"*","index":4,"text":"def createdids = karate.mapWithKey(dataids,'id')"}},{"result":{"nanos":2015500,"millis":2.0155,"status":"passed"},"step":{"line":8,"prefix":"*","index":5,"text":"print createdids"},"stepLog":"19:38:38.580 [print] [\n  {\n    \"id\": 7\n  },\n  {\n    \"id\": 8\n  },\n  {\n    \"id\": 9\n  },\n  {\n    \"id\": 10\n  },\n  {\n    \"id\": 11\n  },\n  {\n    \"id\": 12\n  }\n]\n \n"},{"result":{"nanos":125578200,"errorMessage":"feature call loop failed at index: 0, http call failed after 0 milliseconds for url: 7\norg.apache.http.ProtocolException: Target host is not specified\ntestSuite\/deleteid.feature:4\nfeature call loop failed at index: 1, http call failed after 0 milliseconds for url: 8\norg.apache.http.ProtocolException: Target host is not specified\ntestSuite\/deleteid.feature:4\nfeature call loop failed at index: 2, http call failed after 2 milliseconds for url: 9\norg.apache.http.ProtocolException: Target host is not specified\ntestSuite\/deleteid.feature:4\nfeature call loop failed at index: 3, http call failed after 0 milliseconds for url: 10\norg.apache.http.ProtocolException: Target host is not specified\ntestSuite\/deleteid.feature:4\nfeature call loop failed at index: 4, http call failed after 5 milliseconds for url: 11\norg.apache.http.ProtocolException: Target host is not specified\ntestSuite\/deleteid.feature:4\nfeature call loop failed at index: 5, http call failed after 0 milliseconds for url: 12\norg.apache.http.ProtocolException: Target host is not specified\ntestSuite\/deleteid.feature:4\ntestSuite\/beforeTest.feature:9","millis":125.5782,"status":"failed"},"step":{"line":9,"prefix":"*","index":6,"text":"def delid = call read('deleteid.feature') createdids"},"stepLog":"19:38:38.702 testSuite\/beforeTest.feature:9\n* def delid = call read('deleteid.feature') createdids\nfeature call loop failed at index: 5, http call failed after 0 milliseconds for url: 12\norg.apache.http.ProtocolException: Target host is not specified\ntestSuite\/deleteid.feature:4\n19:38:38.702 testSuite\/beforeTest.feature:9\n* def delid = call read('deleteid.feature') createdids\nfeature call loop failed at index: 0, http call failed after 0 milliseconds for url: 7\norg.apache.http.ProtocolException: Target host is not specified\ntestSuite\/deleteid.feature:4\nfeature call loop failed at index: 1, http call failed after 0 milliseconds for url: 8\norg.apache.http.ProtocolException: Target host is not specified\ntestSuite\/deleteid.feature:4\nfeature call loop failed at index: 2, http call failed after 2 milliseconds for url: 9\norg.apache.http.ProtocolException: Target host is not specified\ntestSuite\/deleteid.feature:4\nfeature call loop failed at index: 3, http call failed after 0 milliseconds for url: 10\norg.apache.http.ProtocolException: Target host is not specified\ntestSuite\/deleteid.feature:4\nfeature call loop failed at index: 4, http call failed after 5 milliseconds for url: 11\norg.apache.http.ProtocolException: Target host is not specified\ntestSuite\/deleteid.feature:4\nfeature call loop failed at index: 5, http call failed after 0 milliseconds for url: 12\norg.apache.http.ProtocolException: Target host is not specified\ntestSuite\/deleteid.feature:4\ntestSuite\/beforeTest.feature:9\n","callResults":[{"prefixedPath":"testSuite\/deleteid.feature","loopIndex":0,"callDepth":1,"description":"","resultDate":"2023-04-03 07:38:38 pm","durationMillis":16.2836,"callArg":{"id":7},"failedCount":1,"packageQualifiedName":"testSuite.deleteid","relativePath":"testSuite\/deleteid.feature","scenarioResults":[{"sectionIndex":0,"stepResults":[{"result":{"nanos":6292500,"millis":6.2925,"status":"passed"},"step":{"line":3,"prefix":"*","index":0,"text":"url 'https:\/\/reqres.in\/api\/users\/',id"}},{"result":{"nanos":9991100,"errorMessage":"http call failed after 0 milliseconds for url: 7\norg.apache.http.ProtocolException: Target host is not specified\ntestSuite\/deleteid.feature:4","millis":9.9911,"status":"failed"},"step":{"line":4,"prefix":"*","index":1,"text":"method DELETE"},"stepLog":"19:38:38.627 org.apache.http.ProtocolException: Target host is not specified, http call failed after 0 milliseconds for url: 7\n19:38:38.636 testSuite\/deleteid.feature:4\n* method DELETE\nhttp call failed after 0 milliseconds for url: 7\norg.apache.http.ProtocolException: Target host is not specified\ntestSuite\/deleteid.feature:4\n"},{"result":{"nanos":0,"millis":0.0,"status":"skipped"},"step":{"line":5,"prefix":"*","index":2,"text":"status 204"}}],"line":2,"description":"","durationMillis":16.2836,"failed":true,"error":"http call failed after 0 milliseconds for url: 7\norg.apache.http.ProtocolException: Target host is not specified\ntestSuite\/deleteid.feature:4","executorName":"main","name":"Delete id","startTime":1680530918611,"refId":"[1:2]","endTime":1680530918636,"exampleIndex":-1}],"name":"Delete single ID","passedCount":0},{"prefixedPath":"testSuite\/deleteid.feature","loopIndex":1,"callDepth":1,"description":"","resultDate":"2023-04-03 07:38:38 pm","durationMillis":2.9889,"callArg":{"id":8},"failedCount":1,"packageQualifiedName":"testSuite.deleteid","relativePath":"testSuite\/deleteid.feature","scenarioResults":[{"sectionIndex":0,"stepResults":[{"result":{"nanos":853600,"millis":0.8536,"status":"passed"},"step":{"line":3,"prefix":"*","index":0,"text":"url 'https:\/\/reqres.in\/api\/users\/',id"},"stepLog":"19:38:38.645 testSuite\/beforeTest.feature:9\n* def delid = call read('deleteid.feature') createdids\nfeature call loop failed at index: 0, http call failed after 0 milliseconds for url: 7\norg.apache.http.ProtocolException: Target host is not specified\ntestSuite\/deleteid.feature:4\n"},{"result":{"nanos":2135300,"errorMessage":"http call failed after 0 milliseconds for url: 8\norg.apache.http.ProtocolException: Target host is not specified\ntestSuite\/deleteid.feature:4","millis":2.1353,"status":"failed"},"step":{"line":4,"prefix":"*","index":1,"text":"method DELETE"},"stepLog":"19:38:38.655 org.apache.http.ProtocolException: Target host is not specified, http call failed after 0 milliseconds for url: 8\n19:38:38.655 testSuite\/deleteid.feature:4\n* method DELETE\nhttp call failed after 0 milliseconds for url: 8\norg.apache.http.ProtocolException: Target host is not specified\ntestSuite\/deleteid.feature:4\n"},{"result":{"nanos":0,"millis":0.0,"status":"skipped"},"step":{"line":5,"prefix":"*","index":2,"text":"status 204"}}],"line":2,"description":"","durationMillis":2.9889,"failed":true,"error":"http call failed after 0 milliseconds for url: 8\norg.apache.http.ProtocolException: Target host is not specified\ntestSuite\/deleteid.feature:4","executorName":"main","name":"Delete id","startTime":1680530918652,"refId":"[1:2]","endTime":1680530918655,"exampleIndex":-1}],"name":"Delete single ID","passedCount":0},{"prefixedPath":"testSuite\/deleteid.feature","loopIndex":2,"callDepth":1,"description":"","resultDate":"2023-04-03 07:38:38 pm","durationMillis":3.8908,"callArg":{"id":9},"failedCount":1,"packageQualifiedName":"testSuite.deleteid","relativePath":"testSuite\/deleteid.feature","scenarioResults":[{"sectionIndex":0,"stepResults":[{"result":{"nanos":1231100,"millis":1.2311,"status":"passed"},"step":{"line":3,"prefix":"*","index":0,"text":"url 'https:\/\/reqres.in\/api\/users\/',id"},"stepLog":"19:38:38.655 testSuite\/beforeTest.feature:9\n* def delid = call read('deleteid.feature') createdids\nfeature call loop failed at index: 1, http call failed after 0 milliseconds for url: 8\norg.apache.http.ProtocolException: Target host is not specified\ntestSuite\/deleteid.feature:4\n"},{"result":{"nanos":2659700,"errorMessage":"http call failed after 2 milliseconds for url: 9\norg.apache.http.ProtocolException: Target host is not specified\ntestSuite\/deleteid.feature:4","millis":2.6597,"status":"failed"},"step":{"line":4,"prefix":"*","index":1,"text":"method DELETE"},"stepLog":"19:38:38.669 org.apache.http.ProtocolException: Target host is not specified, http call failed after 2 milliseconds for url: 9\n19:38:38.669 testSuite\/deleteid.feature:4\n* method DELETE\nhttp call failed after 2 milliseconds for url: 9\norg.apache.http.ProtocolException: Target host is not specified\ntestSuite\/deleteid.feature:4\n"},{"result":{"nanos":0,"millis":0.0,"status":"skipped"},"step":{"line":5,"prefix":"*","index":2,"text":"status 204"}}],"line":2,"description":"","durationMillis":3.8908,"failed":true,"error":"http call failed after 2 milliseconds for url: 9\norg.apache.http.ProtocolException: Target host is not specified\ntestSuite\/deleteid.feature:4","executorName":"main","name":"Delete id","startTime":1680530918662,"refId":"[1:2]","endTime":1680530918669,"exampleIndex":-1}],"name":"Delete single ID","passedCount":0},{"prefixedPath":"testSuite\/deleteid.feature","loopIndex":3,"callDepth":1,"description":"","resultDate":"2023-04-03 07:38:38 pm","durationMillis":2.3114,"callArg":{"id":10},"failedCount":1,"packageQualifiedName":"testSuite.deleteid","relativePath":"testSuite\/deleteid.feature","scenarioResults":[{"sectionIndex":0,"stepResults":[{"result":{"nanos":465500,"millis":0.4655,"status":"passed"},"step":{"line":3,"prefix":"*","index":0,"text":"url 'https:\/\/reqres.in\/api\/users\/',id"},"stepLog":"19:38:38.669 testSuite\/beforeTest.feature:9\n* def delid = call read('deleteid.feature') createdids\nfeature call loop failed at index: 2, http call failed after 2 milliseconds for url: 9\norg.apache.http.ProtocolException: Target host is not specified\ntestSuite\/deleteid.feature:4\n"},{"result":{"nanos":1845900,"errorMessage":"http call failed after 0 milliseconds for url: 10\norg.apache.http.ProtocolException: Target host is not specified\ntestSuite\/deleteid.feature:4","millis":1.8459,"status":"failed"},"step":{"line":4,"prefix":"*","index":1,"text":"method DELETE"},"stepLog":"19:38:38.677 org.apache.http.ProtocolException: Target host is not specified, http call failed after 0 milliseconds for url: 10\n19:38:38.682 testSuite\/deleteid.feature:4\n* method DELETE\nhttp call failed after 0 milliseconds for url: 10\norg.apache.http.ProtocolException: Target host is not specified\ntestSuite\/deleteid.feature:4\n"},{"result":{"nanos":0,"millis":0.0,"status":"skipped"},"step":{"line":5,"prefix":"*","index":2,"text":"status 204"}}],"line":2,"description":"","durationMillis":2.3114,"failed":true,"error":"http call failed after 0 milliseconds for url: 10\norg.apache.http.ProtocolException: Target host is not specified\ntestSuite\/deleteid.feature:4","executorName":"main","name":"Delete id","startTime":1680530918677,"refId":"[1:2]","endTime":1680530918682,"exampleIndex":-1}],"name":"Delete single ID","passedCount":0},{"prefixedPath":"testSuite\/deleteid.feature","loopIndex":4,"callDepth":1,"description":"","resultDate":"2023-04-03 07:38:38 pm","durationMillis":2.6104,"callArg":{"id":11},"failedCount":1,"packageQualifiedName":"testSuite.deleteid","relativePath":"testSuite\/deleteid.feature","scenarioResults":[{"sectionIndex":0,"stepResults":[{"result":{"nanos":510000,"millis":0.51,"status":"passed"},"step":{"line":3,"prefix":"*","index":0,"text":"url 'https:\/\/reqres.in\/api\/users\/',id"},"stepLog":"19:38:38.682 testSuite\/beforeTest.feature:9\n* def delid = call read('deleteid.feature') createdids\nfeature call loop failed at index: 3, http call failed after 0 milliseconds for url: 10\norg.apache.http.ProtocolException: Target host is not specified\ntestSuite\/deleteid.feature:4\n"},{"result":{"nanos":2100400,"errorMessage":"http call failed after 5 milliseconds for url: 11\norg.apache.http.ProtocolException: Target host is not specified\ntestSuite\/deleteid.feature:4","millis":2.1004,"status":"failed"},"step":{"line":4,"prefix":"*","index":1,"text":"method DELETE"},"stepLog":"19:38:38.694 org.apache.http.ProtocolException: Target host is not specified, http call failed after 5 milliseconds for url: 11\n19:38:38.694 testSuite\/deleteid.feature:4\n* method DELETE\nhttp call failed after 5 milliseconds for url: 11\norg.apache.http.ProtocolException: Target host is not specified\ntestSuite\/deleteid.feature:4\n"},{"result":{"nanos":0,"millis":0.0,"status":"skipped"},"step":{"line":5,"prefix":"*","index":2,"text":"status 204"}}],"line":2,"description":"","durationMillis":2.6104,"failed":true,"error":"http call failed after 5 milliseconds for url: 11\norg.apache.http.ProtocolException: Target host is not specified\ntestSuite\/deleteid.feature:4","executorName":"main","name":"Delete id","startTime":1680530918689,"refId":"[1:2]","endTime":1680530918694,"exampleIndex":-1}],"name":"Delete single ID","passedCount":0},{"prefixedPath":"testSuite\/deleteid.feature","loopIndex":5,"callDepth":1,"description":"","resultDate":"2023-04-03 07:38:38 pm","durationMillis":2.1559,"callArg":{"id":12},"failedCount":1,"packageQualifiedName":"testSuite.deleteid","relativePath":"testSuite\/deleteid.feature","scenarioResults":[{"sectionIndex":0,"stepResults":[{"result":{"nanos":311600,"millis":0.3116,"status":"passed"},"step":{"line":3,"prefix":"*","index":0,"text":"url 'https:\/\/reqres.in\/api\/users\/',id"},"stepLog":"19:38:38.694 testSuite\/beforeTest.feature:9\n* def delid = call read('deleteid.feature') createdids\nfeature call loop failed at index: 4, http call failed after 5 milliseconds for url: 11\norg.apache.http.ProtocolException: Target host is not specified\ntestSuite\/deleteid.feature:4\n"},{"result":{"nanos":1844300,"errorMessage":"http call failed after 0 milliseconds for url: 12\norg.apache.http.ProtocolException: Target host is not specified\ntestSuite\/deleteid.feature:4","millis":1.8443,"status":"failed"},"step":{"line":4,"prefix":"*","index":1,"text":"method DELETE"},"stepLog":"19:38:38.702 org.apache.http.ProtocolException: Target host is not specified, http call failed after 0 milliseconds for url: 12\n19:38:38.702 testSuite\/deleteid.feature:4\n* method DELETE\nhttp call failed after 0 milliseconds for url: 12\norg.apache.http.ProtocolException: Target host is not specified\ntestSuite\/deleteid.feature:4\n"},{"result":{"nanos":0,"millis":0.0,"status":"skipped"},"step":{"line":5,"prefix":"*","index":2,"text":"status 204"}}],"line":2,"description":"","durationMillis":2.1559,"failed":true,"error":"http call failed after 0 milliseconds for url: 12\norg.apache.http.ProtocolException: Target host is not specified\ntestSuite\/deleteid.feature:4","executorName":"main","name":"Delete id","startTime":1680530918702,"refId":"[1:2]","endTime":1680530918702,"exampleIndex":-1}],"name":"Delete single ID","passedCount":0}]}],"line":2,"description":"","durationMillis":1247.533,"failed":true,"error":"feature call loop failed at index: 0, http call failed after 0 milliseconds for url: 7\norg.apache.http.ProtocolException: Target host is not specified\ntestSuite\/deleteid.feature:4\nfeature call loop failed at index: 1, http call failed after 0 milliseconds for url: 8\norg.apache.http.ProtocolException: Target host is not specified\ntestSuite\/deleteid.feature:4\nfeature call loop failed at index: 2, http call failed after 2 milliseconds for url: 9\norg.apache.http.ProtocolException: Target host is not specified\ntestSuite\/deleteid.feature:4\nfeature call loop failed at index: 3, http call failed after 0 milliseconds for url: 10\norg.apache.http.ProtocolException: Target host is not specified\ntestSuite\/deleteid.feature:4\nfeature call loop failed at index: 4, http call failed after 5 milliseconds for url: 11\norg.apache.http.ProtocolException: Target host is not specified\ntestSuite\/deleteid.feature:4\nfeature call loop failed at index: 5, http call failed after 0 milliseconds for url: 12\norg.apache.http.ProtocolException: Target host is not specified\ntestSuite\/deleteid.feature:4\ntestSuite\/beforeTest.feature:9","executorName":"main","name":"Delete all the created ids","startTime":1680530917440,"refId":"[1:2]","endTime":1680530918708,"exampleIndex":-1}],"callDepth":0,"name":"Delete all created ids","description":"","resultDate":"2023-04-03 07:38:38 pm","durationMillis":1247.533,"passedCount":0}